\relax 
\@writefile{toc}{\contentsline {chapter}{Introduction}{3}}
\@writefile{toc}{\contentsline {chapter}{\numberline {1}Numerical Methods for Elliptic Partial Differential Equations}{4}}
\@writefile{lof}{\addvspace {10\p@ }}
\@writefile{lot}{\addvspace {10\p@ }}
\@writefile{toc}{\contentsline {section}{\numberline {1.1}Background of Linear Elliptic Problems}{4}}
\@writefile{toc}{\contentsline {subsection}{\numberline {1.1.1}Physical background of elliptic problems}{4}}
\newlabel{subsered}{{1.1.1}{4}}
\newlabel{ell:enpw}{{1.1.1.1}{5}}
\newlabel{ell:enp}{{1.1.1.2}{5}}
\newlabel{ell:megmtv}{{1.1.1.3}{5}}
\newlabel{ell:fick}{{1.1.1.4}{6}}
\@writefile{thm}{\contentsline {megj}{{Remark.}{1.1.1.1}{}}{6}}
\newlabel{ell:megjmaxw}{{1.1.1.1}{6}}
\newlabel{ell:maxwlin}{{1.1.1.5}{6}}
\global\def\markimegji{\ensuremath {\diamondsuit }}
\@writefile{toc}{\contentsline {subsection}{\numberline {1.1.2}Sobolev spaces, Lax--Milgram theory, weak-, and regular solutions}{7}}
\newlabel{ell:subslaxm}{{1.1.2}{7}}
\@writefile{toc}{\contentsline {subsubsection}{(a) Sobolev spaces}{7}}
\newlabel{ell:sobbev}{{1.1.2}{7}}
\@writefile{thm}{\contentsline {dfn}{{Definition}{1.1.2.1}{}}{7}}
\newlabel{ell:defpc1}{{1.1.2.1}{7}}
\newlabel{ell:hddef}{{1.1.2.6}{8}}
\newlabel{ell:hdotdef}{{1.1.2.7}{8}}
\newlabel{eq:poincare}{{1.1.2.8}{8}}
\newlabel{eq:poincareneu}{{1.1.2.9}{9}}
\newlabel{eq:poincarerend}{{1.1.2.10}{9}}
\newlabel{eq:sobnyom}{{1.1.2.11}{9}}
\newlabel{eq:sobnyomhd}{{1.1.2.12}{9}}
\@writefile{toc}{\contentsline {subsubsection}{(b) Lax--Milgram theory, weak-, and regular solutions}{9}}
\newlabel{ell:bvp}{{1.1.2.13}{9}}
\newlabel{ell:ws}{{1.1.2.14}{10}}
\@writefile{thm}{\contentsline {thm}{{Theorem}{1.1.2.2}{Lax--Milgram lemma}}{10}}
\newlabel{thm:laxm}{{1.1.2.2}{10}}
\newlabel{bilinkorllm}{{1.1.2.15}{10}}
\newlabel{bilinkoerlm}{{1.1.2.16}{10}}
\newlabel{buvphv}{{1.1.2.17}{10}}
\newlabel{szimmellform}{{1.1.2.18}{10}}
\newlabel{ell:bvpkorl}{{1.1.2.19}{11}}
\newlabel{ell:bvpkoer}{{1.1.2.20}{11}}
\@writefile{thm}{\contentsline {kov}{{Corollary}{1.1.2.3}{}}{11}}
\newlabel{thm:laxkov}{{1.1.2.3}{11}}
\newlabel{ell:bvpalt}{{1.1.2.21}{11}}
\newlabel{ell:wsmix}{{1.1.2.22}{11}}
\newlabel{ell:bvpneu}{{1.1.2.23}{11}}
\@writefile{thm}{\contentsline {megj}{{Remark.}{1.1.2.4}{}}{11}}
\newlabel{megj:laxkov}{{1.1.2.4}{11}}
\citation{Kad2}
\citation{Stoyan}
\@writefile{thm}{\contentsline {thm}{{Theorem}{1.1.2.5}{Kadlec, {\rm \cite {Kad2}}}}{12}}
\newlabel{thm:kadlec}{{1.1.2.5}{12}}
\newlabel{ell:kadlregbecs}{{1.1.2.24}{12}}
\@writefile{thm}{\contentsline {megj}{{Remark.}{1.1.2.6}{}}{12}}
\newlabel{ell:megjinh}{{1.1.2.6}{12}}
\global\def\markiiimegj{\ensuremath {\diamondsuit }}
\@writefile{toc}{\contentsline {section}{\numberline {1.2}Finite differences}{13}}
\newlabel{ell:secvdm}{{1.2}{13}}
\@writefile{toc}{\contentsline {subsection}{\numberline {1.2.1}Preliminaries}{13}}
\@writefile{toc}{\contentsline {subsubsection}{(a) Basic discretization scheme}{13}}
\@writefile{thm}{\contentsline {megj}{{Remark.}{1.2.1.1}{}}{15}}
\newlabel{ell:megjsemak}{{1.2.1.1}{15}}
\@writefile{toc}{\contentsline {subsubsection}{(b) Basic properties of $M$-matrices}{15}}
\newlabel{ell:subsmtx}{{1.2.1}{15}}
\@writefile{thm}{\contentsline {dfn}{{Definition}{1.2.1.2}{}}{15}}
\@writefile{thm}{\contentsline {dfn}{{Definition}{1.2.1.3}{}}{15}}
\@writefile{thm}{\contentsline {dfn}{{Definition}{1.2.1.4}{}}{15}}
\@writefile{thm}{\contentsline {al}{{Proposition}{1.2.1.5}{}}{15}}
\@writefile{thm}{\contentsline {al}{{Proposition}{1.2.1.6}{}}{15}}
\@writefile{lof}{\contentsline {figure}{\numberline {1.1}{\ignorespaces Grid points in $\Omega $.}}{16}}
\newlabel{fig:2Dteglaracs}{{1.1}{16}}
\@writefile{thm}{\contentsline {kov}{{Corollary}{1.2.1.7}{}}{16}}
\@writefile{thm}{\contentsline {al}{{Proposition}{1.2.1.8}{}}{16}}
\newlabel{ell:mmtxinv}{{1.2.1.8}{16}}
\@writefile{toc}{\contentsline {subsection}{\numberline {1.2.2}Finite differences for Poisson's equation on a rectangle}{16}}
\newlabel{ell:subspoivdm}{{1.2.2}{16}}
\@writefile{toc}{\contentsline {paragraph}{Problem formulation.}{16}}
\newlabel{ell:lapvdm}{{1.2.2.25}{16}}
\@writefile{thm}{\contentsline {dfn}{{Definition}{1.2.2.1}{}}{16}}
\@writefile{thm}{\contentsline {dfn}{{Definition}{1.2.2.2}{}}{17}}
\@writefile{toc}{\contentsline {paragraph}{Approximating the Laplacian by finite differences}{17}}
\@writefile{lof}{\contentsline {figure}{\numberline {1.2}{\ignorespaces The five-point difference star.}}{18}}
\newlabel{fig:5pontdiffcsillag}{{1.2}{18}}
\newlabel{ell:diffsem}{{1.2.2.26}{18}}
\newlabel{ell:laphlek}{{1.2.2.27}{18}}
\@writefile{thm}{\contentsline {dfn}{{Definition}{1.2.2.3}{}}{18}}
\citation{9pt}
\citation{Stoyan}
\@writefile{thm}{\contentsline {al}{{Proposition}{1.2.2.4}{}}{19}}
\newlabel{ell:vdmkeplhib}{{1.2.2.4}{19}}
\@writefile{thm}{\contentsline {proof}{{\proofname }{1}{}}{19}}
\newlabel{ell:ykh}{{1.2.2.28}{19}}
\@writefile{thm}{\contentsline {megjek}{{Remarks.}{1.2.2.5}{}}{19}}
\newlabel{ell:megjvdrend}{{1.2.2.5}{19}}
\@writefile{toc}{\contentsline {paragraph}{Approximating nodal values.}{19}}
\@writefile{lof}{\contentsline {figure}{\numberline {1.3}{\ignorespaces Evaluating nodal values.}}{20}}
\newlabel{fig:csomopontiertekek}{{1.3}{20}}
\@writefile{lof}{\contentsline {figure}{\numberline {1.4}{\ignorespaces Example: a grid $3\times 2$ interior points.}}{20}}
\newlabel{fig:32negyzetracs}{{1.4}{20}}
\newlabel{ell:laphfk}{{1.2.2.29}{20}}
\newlabel{ell:vdmaltmtx}{{1.2.2.30}{21}}
\newlabel{ell:ahlaer}{{1.2.2.31}{21}}
\@writefile{lof}{\contentsline {figure}{\numberline {1.5}{\ignorespaces The structure of the matrix $A_h$. Green: $2/h_1^2+2/h_2^2$, red: $-1/h_1^2$, orange: $-1/h_2^2$.}}{22}}
\newlabel{fig:poissonmstruchom}{{1.5}{22}}
\@writefile{toc}{\contentsline {paragraph}{The equation $A_h \overline  u^h = f^h$.}{22}}
\@writefile{thm}{\contentsline {al}{{Proposition}{1.2.2.6}{}}{22}}
\newlabel{ell:ahmmtx}{{1.2.2.6}{22}}
\@writefile{thm}{\contentsline {proof}{{\proofname }{2}{}}{22}}
\global\def\markiiproofi{\openbox }
\@writefile{thm}{\contentsline {kov}{{Corollary}{1.2.2.7}{}}{22}}
\newlabel{ell:vdmreg}{{1.2.2.7}{22}}
\@writefile{thm}{\contentsline {megjek}{{Remarks.}{1.2.2.8}{}}{22}}
\newlabel{ell:Mkov}{{1.2.2.8}{22}}
\@writefile{thm}{\contentsline {al}{{Proposition}{1.2.2.9}{}}{23}}
\newlabel{ell:vdmmtxinv}{{1.2.2.9}{23}}
\@writefile{thm}{\contentsline {proof}{{\proofname }{3}{}}{23}}
\global\def\markiiiproof{\openbox }
\@writefile{toc}{\contentsline {subsection}{\numberline {1.2.3}Stability and convergence}{23}}
\@writefile{toc}{\contentsline {paragraph}{Stability of the approximate solution.}{23}}
\@writefile{thm}{\contentsline {al}{{Proposition}{1.2.3.1}{}}{23}}
\newlabel{ell:alvdmaxstab}{{1.2.3.1}{23}}
\@writefile{thm}{\contentsline {proof}{{\proofname }{4}{}}{23}}
\global\def\markivproof{\openbox }
\@writefile{thm}{\contentsline {al}{{Proposition}{1.2.3.2}{}}{23}}
\newlabel{ell:alvdmaxstab2}{{1.2.3.2}{23}}
\@writefile{thm}{\contentsline {proof}{{\proofname }{5}{}}{23}}
\@writefile{toc}{\contentsline {paragraph}{Convergence of FDM in maximum norm.}{24}}
\@writefile{thm}{\contentsline {al}{{Proposition}{1.2.3.3}{}}{24}}
\newlabel{ell:hibaegyenlet}{{1.2.3.32}{24}}
\@writefile{thm}{\contentsline {proof}{{\proofname }{6}{}}{24}}
\global\def\markviproof{\openbox }
\@writefile{thm}{\contentsline {thm}{{Theorem}{1.2.3.4}{}}{24}}
\@writefile{thm}{\contentsline {proof}{{\proofname }{7}{}}{24}}
\global\def\markviiproof{\openbox }
\@writefile{thm}{\contentsline {megj}{{Remark.}{1.2.3.5}{}}{24}}
\newlabel{ell:megjvdrendkonv}{{1.2.3.5}{24}}
\@writefile{toc}{\contentsline {subsection}{\numberline {1.2.4}Stability and error estimates in $L^2$ and $H^1_0$}{25}}
\@writefile{toc}{\contentsline {paragraph}{Basic notions and estimates.}{25}}
\@writefile{thm}{\contentsline {dfn}{{Definition}{1.2.4.1}{}}{25}}
\@writefile{thm}{\contentsline {dfn}{{Definition}{1.2.4.2}{}}{25}}
\@writefile{thm}{\contentsline {megj}{{Remark.}{1.2.4.3}{}}{25}}
\newlabel{ell:dGr}{{1.2.4.33}{25}}
\@writefile{thm}{\contentsline {al}{{Proposition}{1.2.4.4}{}}{26}}
\newlabel{ell:alvdl2stab1}{{1.2.4.4}{26}}
\@writefile{thm}{\contentsline {proof}{{\proofname }{8}{}}{26}}
\@writefile{thm}{\contentsline {al}{{Proposition}{1.2.4.5}{}}{26}}
\newlabel{ell:alvdl2stab1}{{1.2.4.5}{26}}
\@writefile{thm}{\contentsline {proof}{{\proofname }{9}{}}{26}}
\@writefile{toc}{\contentsline {paragraph}{Eigenproblem for the discrete Laplacian on a rectangle.}{27}}
\newlabel{ell:lap1sv}{{1.2.4.34}{27}}
\@writefile{thm}{\contentsline {megj}{{Remark.}{1.2.4.6}{}}{27}}
\newlabel{ell:lap1svalb}{{1.2.4.35}{27}}
\global\def\markviimegji{\ensuremath {\diamondsuit }}
\newlabel{ell:lap2se}{{1.2.4.36}{27}}
\@writefile{lof}{\contentsline {figure}{\numberline {1.6}{\ignorespaces ''Continuous'' and ''discrete'' eigenvalues in one dimension.}}{28}}
\newlabel{fig:folytdiszkrse1D}{{1.6}{28}}
\newlabel{ell:lap1svalb2}{{1.2.4.37}{28}}
\@writefile{thm}{\contentsline {al}{{Proposition}{1.2.4.7}{}}{28}}
\newlabel{ell:alvdl2stab2}{{1.2.4.7}{28}}
\@writefile{thm}{\contentsline {megjek}{{Remarks.}{1.2.4.8}{}}{28}}
\@writefile{toc}{\contentsline {subsection}{\numberline {1.2.5}Finite differences for more general problems}{29}}
\newlabel{ell:subsvdmalt}{{1.2.5}{29}}
\@writefile{toc}{\contentsline {paragraph}{General domain.}{29}}
\newlabel{ell:Omh}{{1.2.5.38}{29}}
\newlabel{ell:lapkoz}{{1.2.5.39}{29}}
\@writefile{lof}{\contentsline {figure}{\numberline {1.7}{\ignorespaces Transferring boundary values to nodes.}}{30}}
\newlabel{fig:nemtegla1}{{1.7}{30}}
\@writefile{lof}{\contentsline {figure}{\numberline {1.8}{\ignorespaces Adding boundary nodes to the grid.}}{30}}
\newlabel{fig:nemtegla2}{{1.8}{30}}
\@writefile{lof}{\contentsline {figure}{\numberline {1.9}{\ignorespaces The difference star of the Shortley--Weller scheme.}}{30}}
\newlabel{fig:shortlyweller}{{1.9}{30}}
\newlabel{ell:diffsemsw}{{1.2.5.40}{31}}
\@writefile{toc}{\contentsline {paragraph}{Inhomogeneous boundary conditions.}{31}}
\newlabel{lin_sys_str}{{1.2.5.41}{31}}
\citation{Stoyan}
\@writefile{toc}{\contentsline {paragraph}{Mixed boundary conditions.}{32}}
\newlabel{ell:lapvdm}{{1.2.5.42}{32}}
\@writefile{toc}{\contentsline {paragraph}{Variable-coeffient PDEs.}{32}}
\@writefile{toc}{\contentsline {section}{\numberline {1.3}The finite element method}{33}}
\newlabel{ell:bvpfem}{{1.3.0.43}{33}}
\@writefile{toc}{\contentsline {subsection}{\numberline {1.3.1}Galerkin method}{34}}
\@writefile{toc}{\contentsline {subsubsection}{(a) Galerkin method for bilinear forms}{34}}
\newlabel{bilinkorl}{{1.3.1.44}{34}}
\newlabel{bilinkoer}{{1.3.1.45}{34}}
\newlabel{bilinfel}{{1.3.1.46}{34}}
\newlabel{bilinfelh}{{1.3.1.47}{35}}
\newlabel{ell:femlaer}{{1.3.1.48}{35}}
\@writefile{thm}{\contentsline {al}{{Proposition}{1.3.1.1}{}}{36}}
\newlabel{ell:ahpozdef}{{1.3.1.1}{36}}
\@writefile{thm}{\contentsline {proof}{{\proofname }{10}{}}{36}}
\newlabel{ell:femahcc}{{1.3.1.49}{36}}
\@writefile{thm}{\contentsline {kov}{{Corollary}{1.3.1.2}{}}{36}}
\newlabel{ell:ahmo}{{1.3.1.2}{36}}
\@writefile{thm}{\contentsline {al}{{Proposition}{1.3.1.3}{}}{37}}
\newlabel{ell:fmin}{{1.3.1.3}{37}}
\@writefile{thm}{\contentsline {proof}{{\proofname }{11}{}}{37}}
\@writefile{thm}{\contentsline {al}{{Proposition}{1.3.1.4}{}}{37}}
\newlabel{ell:fminh}{{1.3.1.4}{37}}
\@writefile{thm}{\contentsline {proof}{{\proofname }{12}{}}{37}}
\@writefile{thm}{\contentsline {al}{{Proposition}{1.3.1.5}{}}{38}}
\newlabel{ell:hibaort}{{1.3.1.5}{38}}
\newlabel{ell:eqhibaort}{{1.3.1.50}{38}}
\@writefile{thm}{\contentsline {proof}{{\proofname }{13}{}}{38}}
\newlabel{ell:vareqh}{{1.3.1.51}{38}}
\@writefile{thm}{\contentsline {megj}{{Remark.}{1.3.1.6}{}}{38}}
\newlabel{ell:pg}{{1.3.1.6}{38}}
\newlabel{bilinfelhpg}{{1.3.1.52}{38}}
\global\def\markviiimegji{\ensuremath {\diamondsuit }}
\@writefile{toc}{\contentsline {subsubsection}{(b) C{\'e}a's lemma, quasi-optimality and convergence}{38}}
\@writefile{thm}{\contentsline {al}{{Proposition}{1.3.1.7}{}}{39}}
\newlabel{ell:cealin}{{1.3.1.7}{39}}
\@writefile{thm}{\contentsline {proof}{{\proofname }{14}{}}{39}}
\@writefile{thm}{\contentsline {megj}{{Remark.}{1.3.1.8}{}}{39}}
\newlabel{ell:ceamegj}{{1.3.1.8}{39}}
\@writefile{thm}{\contentsline {al}{{Proposition}{1.3.1.9}{}}{39}}
\newlabel{ell:ceakov}{{1.3.1.9}{39}}
\@writefile{thm}{\contentsline {proof}{{\proofname }{15}{}}{39}}
\@writefile{toc}{\contentsline {subsection}{\numberline {1.3.2}Construction of the FEM. Types of finite elemens}{40}}
\newlabel{ell:subsvemkonstr}{{1.3.2}{40}}
\@writefile{toc}{\contentsline {subsubsection}{(a) Construction of the finite element method for general symmetric elliptic problems}{40}}
\newlabel{ell:bvpfem}{{1.3.2.53}{40}}
\newlabel{ell:wsfem}{{1.3.2.54}{40}}
\newlabel{ell:bvpbilinform}{{1.3.2.55}{40}}
\newlabel{ell:bvplinf}{{1.3.2.56}{40}}
\newlabel{ell:vetfem}{{1.3.2.57}{40}}
\newlabel{ell:uhsumell}{{1.3.2.58}{40}}
\newlabel{ell:bvpalt2}{{1.3.2.59}{41}}
\newlabel{ell:bformmix}{{1.3.2.60}{41}}
\citation{Ci}
\@writefile{toc}{\contentsline {subsubsection}{(b) Finite elements and their types}{42}}
\@writefile{thm}{\contentsline {dfn}{{Definition}{1.3.2.1}{}}{42}}
\@writefile{thm}{\contentsline {dfn}{{Definition}{1.3.2.2}{}}{43}}
\newlabel{ell:ptk}{{1.3.2.61}{43}}
\@writefile{thm}{\contentsline {dfn}{{Definition}{1.3.2.3}{}}{43}}
\@writefile{lof}{\contentsline {figure}{\numberline {1.10}{\ignorespaces A piecewise linear continuous function $u_h$ on [0,1].}}{44}}
\newlabel{fig:szaklin1d}{{1.10}{44}}
\@writefile{lof}{\contentsline {figure}{\numberline {1.11}{\ignorespaces A piecewise linear basis function $\phi _i$ on [0,1].}}{45}}
\newlabel{fig:kalap1d}{{1.11}{45}}
\@writefile{lof}{\contentsline {figure}{\numberline {1.12}{\ignorespaces $T_3$ element or Courant element.}}{45}}
\newlabel{fig:elemekcourant}{{1.12}{45}}
\@writefile{lof}{\contentsline {figure}{\numberline {1.13}{\ignorespaces Continuity on the whole domain.}}{46}}
\newlabel{fig:folytegesztart}{{1.13}{46}}
\@writefile{lof}{\contentsline {figure}{\numberline {1.14}{\ignorespaces A piecewise linear function $u_h$ on $\Omega = [0,1]^2$.}}{46}}
\newlabel{fig:P1funcuniftri}{{1.14}{46}}
\@writefile{lof}{\contentsline {figure}{\numberline {1.15}{\ignorespaces The piecewise linear basis $\varphi _i$ on $\Omega = [0,1]^2$.}}{47}}
\newlabel{fig:satoruniftri}{{1.15}{47}}
\@writefile{lof}{\contentsline {figure}{\numberline {1.16}{\ignorespaces $T_6$ element}}{47}}
\newlabel{fig:elemekt6}{{1.16}{47}}
\newlabel{ell:bfv2}{{1.3.2.62}{47}}
\@writefile{lof}{\contentsline {figure}{\numberline {1.17}{\ignorespaces $R_4$ element.}}{48}}
\newlabel{fig:elemekr4}{{1.17}{48}}
\newlabel{ell:bilptk1}{{1.3.2.63}{48}}
\@writefile{lof}{\contentsline {figure}{\numberline {1.18}{\ignorespaces $R_8$ element.}}{49}}
\newlabel{fig:elemekr8}{{1.18}{49}}
\@writefile{lof}{\contentsline {figure}{\numberline {1.19}{\ignorespaces $T^3_4$ element.}}{50}}
\newlabel{fig:elemekt34}{{1.19}{50}}
\@writefile{lof}{\contentsline {figure}{\numberline {1.20}{\ignorespaces $T^3_{10}$ element.}}{51}}
\newlabel{fig:elemekt310}{{1.20}{51}}
\newlabel{ell:bilptk}{{1.3.2.64}{51}}
\@writefile{lof}{\contentsline {figure}{\numberline {1.21}{\ignorespaces $R^3_8$ element.}}{52}}
\newlabel{fig:elemekr38}{{1.21}{52}}
\@writefile{lof}{\contentsline {figure}{\numberline {1.22}{\ignorespaces 1D cubic Hermite element.}}{52}}
\newlabel{fig:1dhermiteelem}{{1.22}{52}}
\citation{Ci}
\@writefile{lof}{\contentsline {figure}{\numberline {1.23}{\ignorespaces 2D cubic Hermite element.}}{53}}
\newlabel{fig:elemekhermite}{{1.23}{53}}
\citation{Ci}
\citation{Ci}
\citation{Ci}
\@writefile{lof}{\contentsline {figure}{\numberline {1.24}{\ignorespaces Argyris element.}}{54}}
\newlabel{fig:elemekalgyris}{{1.24}{54}}
\citation{Stoyan}
\citation{DG}
\@writefile{lof}{\contentsline {figure}{\numberline {1.25}{\ignorespaces Bell element.}}{55}}
\newlabel{fig:elemekbell}{{1.25}{55}}
\@writefile{thm}{\contentsline {megj}{{Remark.}{1.3.2.4}{}}{55}}
\newlabel{ell:megjrefgbh}{{1.3.2.4}{55}}
\@writefile{thm}{\contentsline {megj}{{Remark.}{1.3.2.5}{}}{55}}
\newlabel{ell:megjvemmtxpl}{{1.3.2.5}{55}}
\global\def\markximegj{\ensuremath {\diamondsuit }}
\@writefile{toc}{\contentsline {subsection}{\numberline {1.3.3}Stability of the finite element method}{56}}
\@writefile{thm}{\contentsline {thm}{{Theorem}{1.3.3.1}{}}{56}}
\newlabel{bilinfelhstab}{{1.3.3.65}{56}}
\newlabel{ell:uhstab}{{1.3.3.66}{56}}
\@writefile{thm}{\contentsline {proof}{{\proofname }{16}{}}{56}}
\newlabel{ell:lbecsdir}{{1.3.3.67}{57}}
\newlabel{ell:uhstab}{{1.3.3.68}{57}}
\citation{RSS}
\@writefile{toc}{\contentsline {subsection}{\numberline {1.3.4}Convergence of the finite element method}{58}}
\newlabel{ell:vemkonv}{{1.3.4}{58}}
\@writefile{toc}{\contentsline {subsubsection}{(a) Introduction: convergence and interpolation}{58}}
\@writefile{thm}{\contentsline {kov}{{Corollary}{1.3.4.1}{}}{58}}
\newlabel{ell:cealinkov}{{1.3.4.1}{58}}
\@writefile{thm}{\contentsline {kov}{{Corollary}{1.3.4.2}{}}{58}}
\newlabel{ell:cealinkovmix}{{1.3.4.2}{58}}
\newlabel{ell:cealmix}{{1.3.4.69}{58}}
\newlabel{ell:ceaint}{{1.3.4.70}{59}}
\newlabel{ell:interp}{{1.3.4.71}{59}}
\@writefile{toc}{\contentsline {subsubsection}{(b) First-order convergence estimate for Courant elements}{59}}
\@writefile{thm}{\contentsline {al}{{Proposition}{1.3.4.3}{}}{60}}
\newlabel{ell:interph1d}{{1.3.4.3}{60}}
\@writefile{thm}{\contentsline {proof}{{\proofname }{17}{}}{60}}
\@writefile{thm}{\contentsline {megj}{{Remark.}{1.3.4.4}{}}{60}}
\newlabel{ell:1dintmag}{{1.3.4.4}{60}}
\citation{Braess}
\@writefile{lof}{\contentsline {figure}{\numberline {1.26}{\ignorespaces The special triangle element $E_h$.}}{61}}
\newlabel{fig:specharomszogelem}{{1.26}{61}}
\global\def\markxiimegj{\ensuremath {\diamondsuit }}
\newlabel{ell:interpeh}{{1.3.4.72}{61}}
\@writefile{thm}{\contentsline {kov}{{Corollary}{1.3.4.5}{}}{61}}
\newlabel{ell:kovfembecsrefh}{{1.3.4.5}{61}}
\@writefile{lof}{\contentsline {figure}{\numberline {1.27}{\ignorespaces Affine mapping of the reference element.}}{62}}
\newlabel{fig:reflekep}{{1.27}{62}}
\@writefile{thm}{\contentsline {al}{{Proposition}{1.3.4.6}{}}{62}}
\newlabel{ell:nbbecsref}{{1.3.4.6}{62}}
\@writefile{thm}{\contentsline {proof}{{\proofname }{18}{}}{63}}
\@writefile{thm}{\contentsline {megj}{{Remark.}{1.3.4.7}{}}{63}}
\newlabel{femh1hasbecs}{{1.3.4.7}{63}}
\newlabel{ell:interph4tk}{{1.3.4.73}{63}}
\global\def\markxiiimegji{\ensuremath {\diamondsuit }}
\@writefile{thm}{\contentsline {dfn}{{Definition}{1.3.4.8}{}}{64}}
\newlabel{ell:vhcsal}{{1.3.4.8}{64}}
\@writefile{thm}{\contentsline {al}{{Proposition}{1.3.4.9}{}}{64}}
\newlabel{ell:nbbecsregfelt}{{1.3.4.9}{64}}
\newlabel{ell:interpregk}{{1.3.4.74}{64}}
\@writefile{thm}{\contentsline {proof}{{\proofname }{19}{}}{64}}
\newlabel{ell:interpeh}{{19}{64}}
\global\def\markxixproof{\openbox }
\@writefile{thm}{\contentsline {al}{{Proposition}{1.3.4.10}{}}{64}}
\newlabel{ell:tsinth}{{1.3.4.10}{64}}
\@writefile{thm}{\contentsline {proof}{{\proofname }{20}{}}{64}}
\@writefile{thm}{\contentsline {kov}{{Corollary}{1.3.4.11}{}}{65}}
\newlabel{ell:tsinthkov}{{1.3.4.11}{65}}
\@writefile{thm}{\contentsline {dfn}{{Definition}{1.3.4.12}{}}{65}}
\newlabel{ell:tsinthkov}{{1.3.4.12}{65}}
\@writefile{thm}{\contentsline {megj}{{Remark.}{1.3.4.13}{}}{65}}
\newlabel{femh1hasbecsreg}{{1.3.4.13}{65}}
\newlabel{ell:h1tkrend}{{1.3.4.75}{65}}
\newlabel{ell:hrtkrend}{{1.3.4.76}{65}}
\@writefile{thm}{\contentsline {al}{{Proposition}{1.3.4.14}{}}{66}}
\newlabel{ell:thinth}{{1.3.4.14}{66}}
\@writefile{thm}{\contentsline {proof}{{\proofname }{21}{}}{66}}
\@writefile{thm}{\contentsline {thm}{{Theorem}{1.3.4.15}{}}{66}}
\newlabel{ell:thkonvh}{{1.3.4.15}{66}}
\@writefile{thm}{\contentsline {proof}{{\proofname }{22}{}}{66}}
\@writefile{thm}{\contentsline {megj}{{Remark.}{1.3.4.16}{}}{67}}
\@writefile{thm}{\contentsline {megj}{{Remark.}{1.3.4.17}{}}{67}}
\newlabel{ell:maaselem}{{1.3.4.17}{67}}
\global\def\markxvimegji{\ensuremath {\diamondsuit }}
\@writefile{toc}{\contentsline {subsubsection}{(c) Convergence without regularity}{67}}
\@writefile{thm}{\contentsline {thm}{{Theorem}{1.3.4.18}{}}{67}}
\newlabel{ell:thkonvnr}{{1.3.4.18}{67}}
\@writefile{thm}{\contentsline {proof}{{\proofname }{23}{}}{67}}
\@writefile{toc}{\contentsline {subsection}{\numberline {1.3.5}Higher-order interpolation and convergence, Bramble--Hilbert lemma}{68}}
\@writefile{toc}{\contentsline {subsubsection}{(a) Interpolation estimates in the $H^1$ norm}{68}}
\@writefile{thm}{\contentsline {thm}{{Theorem}{1.3.5.1}{}}{68}}
\newlabel{ell:thintmag}{{1.3.5.1}{68}}
\@writefile{thm}{\contentsline {al}{{Proposition}{1.3.5.2}{}}{68}}
\newlabel{ell:brh}{{1.3.5.2}{68}}
\newlabel{ell:brhbecs}{{1.3.5.77}{68}}
\@writefile{thm}{\contentsline {proof}{{\proofname }{24}{}}{68}}
\newlabel{ell:puint}{{1.3.5.78}{68}}
\@writefile{thm}{\contentsline {megj}{{Remark.}{1.3.5.3}{}}{69}}
\@writefile{thm}{\contentsline {al}{{Proposition}{1.3.5.4}{}}{69}}
\newlabel{ell:brh2}{{1.3.5.4}{69}}
\newlabel{ell:brhbecs2}{{1.3.5.79}{69}}
\@writefile{thm}{\contentsline {proof}{{\proofname }{25}{}}{69}}
\@writefile{thm}{\contentsline {al}{{Proposition}{1.3.5.5}{}}{70}}
\newlabel{ell:thinthk}{{1.3.5.5}{70}}
\@writefile{thm}{\contentsline {proof}{{\proofname }{26}{}}{70}}
\@writefile{thm}{\contentsline {megj}{{Remark.}{1.3.5.6}{}}{70}}
\@writefile{thm}{\contentsline {megj}{{Remark.}{1.3.5.7}{}}{70}}
\@writefile{toc}{\contentsline {subsubsection}{(b) Higher-order convergence of the finite element method}{70}}
\@writefile{thm}{\contentsline {thm}{{Theorem}{1.3.5.8}{}}{70}}
\newlabel{ell:thkonvhmag}{{1.3.5.8}{70}}
\@writefile{toc}{\contentsline {subsubsection}{(c) Interpolation estimates in higher-order $H^\ell $ norms}{71}}
\@writefile{thm}{\contentsline {al}{{Proposition}{1.3.5.9}{}}{71}}
\newlabel{ell:thinthkl}{{1.3.5.9}{71}}
\@writefile{thm}{\contentsline {proof}{{\proofname }{27}{}}{72}}
\@writefile{toc}{\contentsline {subsection}{\numberline {1.3.6}More convergence estimates, Nitsche's trick, numerical integration}{72}}
\newlabel{ell:sectovkonv}{{1.3.6}{72}}
\@writefile{toc}{\contentsline {subsubsection}{(a) Comparison of the convergence of FDM and FEM}{72}}
\@writefile{toc}{\contentsline {subsubsection}{(b) Nitsche's trick, convergence estimates in $L^2$}{73}}
\@writefile{thm}{\contentsline {thm}{{Theorem}{1.3.6.1}{}}{73}}
\newlabel{ell:thnitsche}{{1.3.6.1}{73}}
\@writefile{thm}{\contentsline {proof}{{\proofname }{28}{}}{73}}
\@writefile{thm}{\contentsline {megj}{{Remark.}{1.3.6.2}{}}{74}}
\@writefile{toc}{\contentsline {subsubsection}{(c) The effect of numerical integration}{74}}
\newlabel{ell:kvadnorm}{{1.3.6.80}{75}}
\newlabel{ell:kvadnormpont}{{1.3.6.81}{75}}
\newlabel{ell:kvadegymo}{{1.3.6.82}{75}}
\newlabel{ell:kvadgymo}{{1.3.6.83}{75}}
\@writefile{thm}{\contentsline {al}{{Proposition}{1.3.6.3}{}}{76}}
\newlabel{ell:kvadkorl}{{1.3.6.3}{76}}
\@writefile{thm}{\contentsline {proof}{{\proofname }{29}{}}{76}}
\global\def\markxxixproof{\openbox }
\@writefile{thm}{\contentsline {kov}{{Corollary}{1.3.6.4}{}}{76}}
\@writefile{thm}{\contentsline {al}{{Proposition}{1.3.6.5}{}}{76}}
\newlabel{ell:kvadkorl}{{1.3.6.5}{76}}
\@writefile{thm}{\contentsline {proof}{{\proofname }{30}{}}{76}}
\citation{Ci}
\citation{numint}
\@writefile{thm}{\contentsline {kov}{{Corollary}{1.3.6.6}{}}{77}}
\@writefile{thm}{\contentsline {thm}{{Theorem}{1.3.6.7}{}}{77}}
\newlabel{ell:cinumint}{{1.3.6.7}{77}}
\@writefile{thm}{\contentsline {kov}{{Corollary}{1.3.6.8}{}}{77}}
\@writefile{toc}{\contentsline {subsubsection}{(d) Refining the mesh, adaptive finite element method}{77}}
\citation{Arnold_PDE}
\citation{KKK}
\newlabel{ell:rezbecs}{{1.3.6.84}{78}}
\@writefile{toc}{\contentsline {subsection}{\numberline {1.3.7}Nonsymmetric and fourth-order equations}{79}}
\newlabel{ell:subs4nsz}{{1.3.7}{79}}
\@writefile{toc}{\contentsline {subsubsection}{\bf  (a) Nonsymmetric equations}{79}}
\newlabel{eq:ellpfnsz}{{1.3.7.85}{79}}
\@writefile{thm}{\contentsline {felt}{{Assumption.}{1.3.7.1}{}}{79}}
\newlabel{ell:nszfelt1}{{1.3.7.1}{79}}
\newlabel{eq:ellpfnszw}{{1.3.7.86}{79}}
\@writefile{thm}{\contentsline {al}{{Proposition}{1.3.7.2}{}}{79}}
\newlabel{thm:nsbvplax}{{1.3.7.2}{79}}
\@writefile{thm}{\contentsline {proof}{{\proofname }{31}{}}{80}}
\newlabel{eq:gaukov}{{1.3.7.87}{80}}
\newlabel{eq:buukoer}{{1.3.7.88}{80}}
\newlabel{eq:bnszhat}{{1.3.7.89}{80}}
\global\def\markxxxiproofiii{\openbox }
\@writefile{thm}{\contentsline {kov}{{Corollary}{1.3.7.3}{}}{80}}
\newlabel{thm:exweaksolns}{{1.3.7.3}{80}}
\@writefile{thm}{\contentsline {megj}{{Remark.}{1.3.7.4}{}}{80}}
\newlabel{rem:nsrem}{{1.3.7.4}{80}}
\newlabel{ell:vetfemnsz}{{1.3.7.90}{80}}
\newlabel{ell:uhsumellnsz}{{1.3.7.91}{81}}
\@writefile{thm}{\contentsline {kov}{{Corollary}{1.3.7.5}{}}{81}}
\newlabel{ell:cealinkovnsz}{{1.3.7.5}{81}}
\newlabel{ell:cealnsz}{{1.3.7.92}{81}}
\newlabel{ell:ceakovnsz}{{1.3.7.93}{81}}
\@writefile{thm}{\contentsline {kov}{{Corollary}{1.3.7.6}{}}{81}}
\newlabel{ell:konvnsz}{{1.3.7.6}{81}}
\newlabel{eq:ellpfnszmix}{{1.3.7.94}{82}}
\@writefile{thm}{\contentsline {felt}{{Assumption.}{1.3.7.7}{}}{82}}
\newlabel{ell:nszfelt2}{{1.3.7.7}{82}}
\newlabel{eq:ellpfnszwmix}{{1.3.7.95}{82}}
\newlabel{eq:gaukovmix}{{1.3.7.96}{82}}
\@writefile{thm}{\contentsline {megj}{{Remark.}{1.3.7.8}{}}{83}}
\newlabel{eq:iiifelt}{{1.3.7.97}{83}}
\@writefile{lof}{\contentsline {figure}{\numberline {1.28}{\ignorespaces Convection boundary conditions.}}{84}}
\newlabel{fig:konvekperem}{{1.28}{84}}
\newlabel{eq:ellpfkvd}{{1.3.7.98}{84}}
\citation{ESW}
\@writefile{lof}{\contentsline {figure}{\numberline {1.29}{\ignorespaces Solution to the convection-dominated 1D problem.}}{85}}
\newlabel{fig:hatarreteg}{{1.29}{85}}
\newlabel{eq:ellszingkoer}{{1.3.7.99}{85}}
\newlabel{eq:ellszingstab}{{1.3.7.100}{85}}
\newlabel{eq:ellpfkvdw}{{1.3.7.101}{86}}
\newlabel{eq:ellpfkvdwpgg}{{1.3.7.102}{86}}
\newlabel{ell:kvdsdfem}{{1.3.7.103}{86}}
\@writefile{toc}{\contentsline {subsubsection}{\bf  (b) Fourth-order equations}{87}}
\newlabel{platemot2}{{1.3.7.104}{87}}
\newlabel{4w}{{1.3.7.105}{88}}
\newlabel{elw}{{1.3.7.106}{88}}
\newlabel{4bf}{{1.3.7.107}{88}}
\newlabel{4sk}{{1.3.7.108}{88}}
\newlabel{ell:4fem}{{1.3.7.109}{88}}
\newlabel{ell:uhsumellnsz}{{1.3.7.110}{88}}
\newlabel{ell:cea4}{{1.3.7.111}{89}}
\newlabel{ell:minkv4}{{1.3.7.112}{89}}
\citation{Ax}
\@writefile{toc}{\contentsline {section}{\numberline {1.4}Iterative solution of the discretized problems}{90}}
\newlabel{secdiszkmo}{{1.4}{90}}
\newlabel{laerit}{{1.4.0.113}{90}}
\@writefile{toc}{\contentsline {subsection}{\numberline {1.4.1}Direct solution, Fourier method}{90}}
\@writefile{toc}{\contentsline {subsection}{\numberline {1.4.2}Simple iteration}{90}}
\@writefile{thm}{\contentsline {thm}{{Theorem}{1.4.2.1}{}}{90}}
\newlabel{ell:thmgmsz}{{1.4.2.1}{90}}
\newlabel{ell:mtxspekv}{{1.4.2.114}{90}}
\@writefile{thm}{\contentsline {proof}{{\proofname }{32}{}}{91}}
\@writefile{thm}{\contentsline {thm}{{Theorem}{1.4.2.2}{}}{91}}
\newlabel{ell:thmgmnsz}{{1.4.2.2}{91}}
\@writefile{thm}{\contentsline {proof}{{\proofname }{33}{}}{92}}
\global\def\markxxxiiiproofii{\openbox }
\@writefile{toc}{\contentsline {subsection}{\numberline {1.4.3}The conjugate gradient method}{92}}
\newlabel{eq:konj}{{{{\sc  konj}}}{92}}
\newlabel{eq:ort}{{{{\sc  ort}}}{92}}
\citation{Ax}
\newlabel{kgmszimm1}{{1.4.3}{93}}
\@writefile{thm}{\contentsline {thm}{{Theorem}{1.4.3.1}{}}{93}}
\newlabel{ell:thmkgm}{{1.4.3.1}{93}}
\@writefile{thm}{\contentsline {megj}{{Remark.}{1.4.3.2}{}}{93}}
\@writefile{toc}{\contentsline {subsection}{\numberline {1.4.4}Preconditioning}{93}}
\newlabel{subsprek}{{1.4.4}{93}}
\@writefile{thm}{\contentsline {thm}{{Theorem}{1.4.4.1}{}}{95}}
\newlabel{ell:thmjacgs}{{1.4.4.1}{95}}
\@writefile{thm}{\contentsline {megj}{{Remark.}{1.4.4.2}{}}{95}}
\citation{nfa}
\@writefile{toc}{\contentsline {section}{\numberline {1.5}The multigrid method}{97}}
\@writefile{toc}{\contentsline {subsection}{\numberline {1.5.1}Basic principles and construction of the two-grid method}{97}}
\newlabel{ell:fomegax}{{1.5.1.115}{99}}
\newlabel{ell:twogm}{{1.5.1.116}{101}}
\@writefile{lof}{\contentsline {figure}{\numberline {1.30}{\ignorespaces Restriction in a rectangular grid.}}{102}}
\newlabel{fig:negyracs}{{1.30}{102}}
\@writefile{thm}{\contentsline {megj}{{Remark.}{1.5.1.1}{}}{102}}
\newlabel{ell:mgkh}{{1.5.1.1}{102}}
\@writefile{thm}{\contentsline {megj}{{Remark.}{1.5.1.2}{}}{102}}
\newlabel{ell:megjrtp}{{1.5.1.2}{102}}
\@writefile{toc}{\contentsline {subsection}{\numberline {1.5.2}The convergence of the two-grid method}{102}}
\newlabel{ell:twogm2}{{1.5.2.117}{102}}
\@writefile{thm}{\contentsline {al}{{Proposition}{1.5.2.1}{}}{103}}
\newlabel{ell:twogmkontr}{{1.5.2.118}{103}}
\@writefile{thm}{\contentsline {proof}{{\proofname }{34}{}}{103}}
\@writefile{thm}{\contentsline {felt}{{Assumption.}{1.5.2.2}{}}{103}}
\newlabel{ell:feltmgkv}{{1.5.2.2}{103}}
\@writefile{thm}{\contentsline {al}{{Proposition}{1.5.2.3}{}}{104}}
\newlabel{ell:lkhn}{{1.5.2.3}{104}}
\@writefile{thm}{\contentsline {al}{{Proposition}{1.5.2.4}{}}{104}}
\newlabel{ell:mgappr}{{1.5.2.4}{104}}
\newlabel{ell:apprtulthm}{{1.5.2.119}{104}}
\@writefile{thm}{\contentsline {proof}{{\proofname }{35}{}}{104}}
\newlabel{ell:bizchdef}{{1.5.2.120}{104}}
\newlabel{ell:auhtwg}{{1.5.2.121}{104}}
\newlabel{ell:bizcHdef}{{1.5.2.122}{104}}
\newlabel{ell:auhHtwg}{{1.5.2.123}{104}}
\@writefile{thm}{\contentsline {al}{{Proposition}{1.5.2.5}{}}{105}}
\newlabel{ell:almgsim}{{1.5.2.5}{105}}
\@writefile{thm}{\contentsline {proof}{{\proofname }{36}{}}{105}}
\citation{ESW}
\@writefile{thm}{\contentsline {pl}{{Example.}{1.5.2.6}{}}{106}}
\newlabel{ell:plmgsim}{{1.5.2.6}{106}}
\citation{ESW}
\citation{Stoyan}
\global\def\markipli{\ensuremath {\diamondsuit }}
\@writefile{toc}{\contentsline {subsection}{\numberline {1.5.3}Multigrid algorithms}{107}}
\@writefile{lof}{\contentsline {figure}{\numberline {1.31}{\ignorespaces The depiction of the V-cycle for three and four grids.}}{108}}
\newlabel{fig:vciklus}{{1.31}{108}}
\@writefile{lof}{\contentsline {figure}{\numberline {1.32}{\ignorespaces The depiction of the W-cycle for three and four grids.}}{108}}
\newlabel{fig:wciklus}{{1.32}{108}}
\citation{ESW}
\@writefile{thm}{\contentsline {al}{{Proposition}{1.5.3.1}{}}{109}}
\@writefile{thm}{\contentsline {proof}{{\proofname }{37}{}}{110}}
\citation{BGN}
\citation{nfa}
\@writefile{toc}{\contentsline {section}{\numberline {1.6}Numerical solution of saddle-point problems}{111}}
\newlabel{stokes}{{1.6.0.124}{111}}
\@writefile{toc}{\contentsline {subsection}{\numberline {1.6.1}Existence, inf-sup condition}{111}}
\@writefile{thm}{\contentsline {al}{{Proposition}{1.6.1.1}{}}{111}}
\newlabel{ell:alnbdivadj}{{1.6.1.1}{111}}
\newlabel{stokesadj}{{1.6.1.125}{111}}
\citation{nfa}
\newlabel{eq:saddlest}{{1.6.1.126}{112}}
\newlabel{eq:saddleacfelt}{{1.6.1.127}{112}}
\@writefile{thm}{\contentsline {megj}{{Remark.}{1.6.1.2}{}}{112}}
\global\def\markxxviimegj{\ensuremath {\diamondsuit }}
\newlabel{ukif}{{1.6.1.128}{112}}
\newlabel{spre}{{1.6.1.129}{112}}
\newlabel{schurdef}{{1.6.1.130}{112}}
\newlabel{schurp}{{1.6.1.131}{112}}
\citation{nfa}
\citation{nfa}
\newlabel{eq:lbbeq}{{1.6.1.132}{113}}
\@writefile{thm}{\contentsline {dfn}{{Definition}{1.6.1.3}{}}{113}}
\newlabel{def:lbb}{{1.6.1.3}{113}}
\newlabel{eq:lbb}{{1.6.1.133}{113}}
\@writefile{thm}{\contentsline {thm}{{Theorem}{1.6.1.4}{}}{113}}
\newlabel{thm:nyereg}{{1.6.1.4}{113}}
\newlabel{eq:saddleacfeltbil}{{1.6.1.134}{113}}
\newlabel{eq:saddlebil}{{1.6.1.135}{113}}
\newlabel{eq:lbbfbil}{{1.6.1.136}{113}}
\@writefile{thm}{\contentsline {thm}{{Theorem}{1.6.1.5}{}}{114}}
\newlabel{thm:nyeregbil}{{1.6.1.5}{114}}
\newlabel{lkndef}{{1.6.1.137}{114}}
\@writefile{thm}{\contentsline {dfn}{{Definition}{1.6.1.6}{}}{114}}
\newlabel{ell:stokesws}{{1.6.1.138}{114}}
\newlabel{ell:stokesforms}{{1.6.1.139}{114}}
\citation{Necas}
\citation{infsupexpl}
\citation{inf-Stoyan}
\@writefile{thm}{\contentsline {al}{{Proposition}{1.6.1.7}{}}{115}}
\newlabel{cl:infst}{{1.6.1.7}{115}}
\newlabel{ell:lbbfst}{{1.6.1.140}{115}}
\@writefile{thm}{\contentsline {proof}{{\proofname }{38}{}}{115}}
\@writefile{thm}{\contentsline {megj}{{Remark.}{1.6.1.8}{}}{115}}
\newlabel{ell:explgamma}{{1.6.1.8}{115}}
\@writefile{thm}{\contentsline {thm}{{Theorem}{1.6.1.9}{}}{115}}
\newlabel{thm:nyeregst}{{1.6.1.9}{115}}
\@writefile{thm}{\contentsline {proof}{{\proofname }{39}{}}{115}}
\@writefile{thm}{\contentsline {megj}{{Remark.}{1.6.1.10}{}}{115}}
\newlabel{ell:megjdiv1}{{1.6.1.10}{115}}
\newlabel{ell:megjstokesdiv}{{1.6.1.141}{115}}
\citation{nfa}
\citation{nfa}
\citation{nfa}
\@writefile{toc}{\contentsline {subsection}{\numberline {1.6.2}The Uzawa algorithm}{116}}
\@writefile{toc}{\contentsline {paragraph}{Absztrakt Uzawa-iter\IeC {\'a}ci\IeC {\'o}.}{116}}
\newlabel{eq:saddlest2}{{1.6.2.142}{116}}
\newlabel{ell:schurp2}{{1.6.2.143}{116}}
\@writefile{thm}{\contentsline {thm}{{Theorem}{1.6.2.1}{}}{116}}
\newlabel{thm:uzawa}{{1.6.2.1}{116}}
\newlabel{ell:uzit}{{1.6.2.144}{116}}
\newlabel{eq:saddleacfeltbil2}{{1.6.2.145}{117}}
\@writefile{thm}{\contentsline {thm}{{Theorem}{1.6.2.2}{}}{117}}
\newlabel{thm:uzawabil}{{1.6.2.2}{117}}
\newlabel{eq:uzitbil}{{1.6.2.146}{117}}
\@writefile{toc}{\contentsline {paragraph}{Uzawa-iter\IeC {\'a}ci\IeC {\'o} a Stokes-feladatra.}{117}}
\@writefile{thm}{\contentsline {thm}{{Theorem}{1.6.2.3}{}}{118}}
\newlabel{thm:uzawastokes}{{1.6.2.3}{118}}
\newlabel{ell:uzitstokes}{{1.6.2.147}{118}}
\@writefile{thm}{\contentsline {proof}{{\proofname }{40}{}}{118}}
\@writefile{thm}{\contentsline {megj}{{Remark.}{1.6.2.4}{}}{118}}
\newlabel{ell:megjuzfolyt}{{1.6.2.4}{118}}
\@writefile{toc}{\contentsline {subsection}{\numberline {1.6.3}Finite element solution of the Stokes problem}{118}}
\newlabel{ell:stokeswsh}{{1.6.3.148}{118}}
\citation{ESW}
\citation{Stoyan}
\@writefile{thm}{\contentsline {dfn}{{Definition}{1.6.3.1}{}}{119}}
\newlabel{def:lbbrg}{{1.6.3.1}{119}}
\newlabel{ell:lbb}{{1.6.3.149}{119}}
\@writefile{thm}{\contentsline {thm}{{Theorem}{1.6.3.2}{}}{119}}
\newlabel{thm:nyeregst2}{{1.6.3.2}{119}}
\@writefile{thm}{\contentsline {proof}{{\proofname }{41}{}}{119}}
\newlabel{ell:laernyereg}{{1.6.3.150}{119}}
\citation{ESW}
\citation{Stoyan}
\@writefile{thm}{\contentsline {thm}{{Theorem}{1.6.3.3}{}}{120}}
\newlabel{thm:uzawastokesh}{{1.6.3.3}{120}}
\newlabel{ell:uzitstokes}{{1.6.3.151}{120}}
\@writefile{thm}{\contentsline {proof}{{\proofname }{42}{}}{120}}
\@writefile{thm}{\contentsline {megj}{{Remark.}{1.6.3.4}{}}{120}}
\citation{book}
\citation{KN}
\citation{nfa}
\citation{KN}
\@writefile{toc}{\contentsline {section}{\numberline {1.7}Numerical solution of nonlinear elliptic problems}{121}}
\@writefile{toc}{\contentsline {subsection}{\numberline {1.7.1}A few simple model problems}{121}}
\@writefile{toc}{\contentsline {paragraph}{Skal\IeC {\'a}r-nemlinearit\IeC {\'a}s.}{121}}
\newlabel{eq:nemlinpf1}{{1.7.1.152}{121}}
\newlabel{ell:maxwlin}{{1.7.1.153}{121}}
\newlabel{ell:maxnemlin}{{1.7.1.154}{121}}
\newlabel{eq:nemlinpf1w}{{1.7.1.155}{121}}
\citation{nfa}
\newlabel{ell:opeqw}{{1.7.1.156}{122}}
\newlabel{eq:nemlinF}{{1.7.1.157}{122}}
\@writefile{toc}{\contentsline {paragraph}{F\IeC {\H o}r\IeC {\'e}sz\IeC {\'e}ben nemline\IeC {\'a}ris divergencia-alak\IeC {\'u} feladatok.}{122}}
\newlabel{ell:nemlinpfalk}{{1.7.1.158}{122}}
\newlabel{eq:nemlinpfaltw}{{1.7.1.159}{122}}
\@writefile{thm}{\contentsline {felt}{{Assumption.}{1.7.1.1}{}}{122}}
\newlabel{ell:feltlm}{{1.7.1.1}{122}}
\newlabel{eq:nemlinFf}{{1.7.1.160}{123}}
\@writefile{toc}{\contentsline {paragraph}{Szemiline{\'a}ris konvekci\IeC {\'o}-reakci\IeC {\'o}-diff\IeC {\'u}zi\IeC {\'o}s feladatok.}{123}}
\newlabel{eq:ellpfnlsz}{{1.7.1.161}{123}}
\@writefile{thm}{\contentsline {felt}{{Assumption.}{1.7.1.2}{}}{123}}
\newlabel{ell:feltnkd}{{1.7.1.2}{123}}
\newlabel{qsgrow}{{1.7.1.162}{123}}
\newlabel{eq:ellpfnlszw}{{1.7.1.163}{123}}
\citation{nfa}
\citation{nfa}
\@writefile{toc}{\contentsline {subsection}{\numberline {1.7.2}Monotone operators, existence}{124}}
\@writefile{thm}{\contentsline {thm}{{Theorem}{1.7.2.1}{}}{124}}
\newlabel{thm:exnonpotf}{{1.7.2.1}{124}}
\newlabel{ell:nmon}{{1.7.2.164}{124}}
\newlabel{ell:nlip}{{1.7.2.165}{124}}
\@writefile{thm}{\contentsline {lem}{{Lemma.}{1.7.2.2}{}}{124}}
\newlabel{ell:lemnlnl}{{1.7.2.2}{124}}
\@writefile{thm}{\contentsline {proof}{{\proofname }{43}{}}{124}}
\@writefile{thm}{\contentsline {kov}{{Corollary}{1.7.2.3}{}}{125}}
\newlabel{thm:exsemilin}{{1.7.2.3}{125}}
\@writefile{toc}{\contentsline {subsection}{\numberline {1.7.3}Finite element discretization}{125}}
\@writefile{toc}{\contentsline {paragraph}{Galjorkin-m{\'o}dszer nemline{\'a}ris operatoregyenletekre.}{125}}
\newlabel{opeqnlrg}{{1.7.3.166}{125}}
\newlabel{weqrgnl}{{1.7.3.167}{125}}
\newlabel{weqrgnlvet}{{1.7.3.168}{125}}
\newlabel{unsumwsnl}{{1.7.3.169}{125}}
\@writefile{thm}{\contentsline {megj}{{Remark.}{1.7.3.1}{}}{126}}
\newlabel{nlort}{{1.7.3.170}{126}}
\@writefile{thm}{\contentsline {al}{{Proposition}{1.7.3.2}{}}{126}}
\newlabel{cl:ceanl}{{1.7.3.2}{126}}
\@writefile{thm}{\contentsline {proof}{{\proofname }{44}{}}{126}}
\@writefile{toc}{\contentsline {paragraph}{V{\'e}geselemes megold{\'a}s nemlinear\ elliptikus feladatra.}{126}}
\newlabel{eq:nemlinpfalkfem}{{1.7.3.171}{126}}
\newlabel{ell:nlw}{{1.7.3.172}{126}}
\citation{nfa}
\@writefile{thm}{\contentsline {thm}{{Theorem}{1.7.3.3}{}}{127}}
\newlabel{ell:thkonvhmagnl}{{1.7.3.3}{127}}
\@writefile{toc}{\contentsline {subsection}{\numberline {1.7.4}Newton-type iterations}{127}}
\newlabel{weqrgnlvet2}{{1.7.4.173}{127}}
\citation{nfa}
\citation{nfa}
\newlabel{uniregnew}{{1.7.4.174}{128}}
\@writefile{thm}{\contentsline {thm}{{Theorem}{1.7.4.1}{}}{128}}
\newlabel{thm:nk}{{1.7.4.1}{128}}
\newlabel{qunulllok}{{1.7.4.175}{128}}
\newlabel{newconvq}{{1.7.4.176}{128}}
\@writefile{thm}{\contentsline {megj}{{Remark.}{1.7.4.2}{}}{128}}
\newlabel{rem:gdnew}{{1.7.4.2}{128}}
\@writefile{thm}{\contentsline {thm}{{Theorem}{1.7.4.3}{}}{129}}
\newlabel{ell:DN}{{1.7.4.3}{129}}
\newlabel{dnsq}{{1.7.4.177}{129}}
\newlabel{order1dn}{{1.7.4.178}{129}}
\newlabel{wqdn}{{1.7.4.179}{129}}
\@writefile{thm}{\contentsline {megj}{{Remark.}{1.7.4.4}{}}{129}}
\newlabel{ell:newalg}{{1.7.4.4}{129}}
\newlabel{ell:new0}{{1.7.4.180}{129}}
\citation{nfa}
\@writefile{thm}{\contentsline {felt}{{Assumption.}{1.7.4.5}{}}{130}}
\newlabel{ell:newdifffelt}{{1.7.4.5}{130}}
\newlabel{ell:uell}{{1.7.4.181}{130}}
\@writefile{thm}{\contentsline {megj}{{Remark.}{1.7.4.6}{}}{130}}
\newlabel{NFEM}{{1.7.4.182}{130}}
\citation{nfa}
\newlabel{eq:nemlinpf2}{{1.7.4.183}{131}}
\newlabel{eq:skalfelt}{{1.7.4.184}{131}}
\@writefile{toc}{\contentsline {section}{\numberline {1.8}Exercises}{132}}
\@writefile{thm}{\contentsline {felad}{{Exercise.}{1.8.0.1}{}}{132}}
\newlabel{felvdm2}{{1.8.0.1}{132}}
\@writefile{thm}{\contentsline {felad}{{Exercise.}{1.8.0.2}{}}{132}}
\newlabel{felvdm3}{{1.8.0.2}{132}}
\@writefile{thm}{\contentsline {felad}{{Exercise.}{1.8.0.3}{}}{132}}
\newlabel{felvdm4}{{1.8.0.3}{132}}
\@writefile{thm}{\contentsline {felad}{{Exercise.}{1.8.0.4}{}}{132}}
\newlabel{felvdm5}{{1.8.0.4}{132}}
\@writefile{thm}{\contentsline {felad}{{Exercise.}{1.8.0.5}{}}{132}}
\newlabel{felvdm6}{{1.8.0.5}{132}}
\@writefile{thm}{\contentsline {felad}{{Exercise.}{1.8.0.6}{}}{132}}
\newlabel{felvdm7}{{1.8.0.6}{132}}
\@writefile{thm}{\contentsline {felad}{{Exercise.}{1.8.0.7}{}}{132}}
\newlabel{felvdm8}{{1.8.0.7}{132}}
\@writefile{thm}{\contentsline {felad}{{Exercise.}{1.8.0.8}{}}{132}}
\newlabel{felvdm1}{{1.8.0.8}{132}}
\global\def\markviiifelad{\ensuremath {\diamondsuit }}
\@writefile{thm}{\contentsline {felad}{{Exercise.}{1.8.0.9}{}}{132}}
\newlabel{felvdmdg}{{1.8.0.9}{132}}
\@writefile{thm}{\contentsline {felad}{{Exercise.}{1.8.0.10}{}}{132}}
\newlabel{felvdm9}{{1.8.0.10}{132}}
\citation{nfa}
\citation{SB}
\@writefile{thm}{\contentsline {felad}{{Exercise.}{1.8.0.11}{}}{133}}
\newlabel{felvdm10}{{1.8.0.11}{133}}
\@writefile{thm}{\contentsline {felad}{{Exercise.}{1.8.0.12}{}}{133}}
\newlabel{felvemort}{{1.8.0.12}{133}}
\@writefile{thm}{\contentsline {felad}{{Exercise.}{1.8.0.13}{}}{133}}
\newlabel{felvemmixMm}{{1.8.0.13}{133}}
\@writefile{thm}{\contentsline {felad}{{Exercise.}{1.8.0.14}{}}{133}}
\newlabel{felvemeig}{{1.8.0.14}{133}}
\@writefile{thm}{\contentsline {felad}{{Exercise.}{1.8.0.15}{}}{133}}
\newlabel{felvemeigbecs}{{1.8.0.15}{133}}
\@writefile{thm}{\contentsline {felad}{{Exercise.}{1.8.0.16}{}}{133}}
\newlabel{felmixnszvem}{{1.8.0.16}{133}}
\@writefile{thm}{\contentsline {felad}{{Exercise.}{1.8.0.17}{}}{133}}
\newlabel{felvemmtxpl}{{1.8.0.17}{133}}
\@writefile{thm}{\contentsline {felad}{{Exercise.}{1.8.0.18}{}}{134}}
\newlabel{felvem4}{{1.8.0.18}{134}}
\@writefile{thm}{\contentsline {felad}{{Exercise.}{1.8.0.19}{}}{134}}
\newlabel{felvem4bk}{{1.8.0.19}{134}}
\@writefile{thm}{\contentsline {felad}{{Exercise.}{1.8.0.20}{}}{134}}
\newlabel{felapost1}{{1.8.0.20}{134}}
\@writefile{thm}{\contentsline {felad}{{Exercise.}{1.8.0.21}{}}{134}}
\newlabel{ell:felcondvdm}{{1.8.0.21}{134}}
\global\def\markxxifelad{\ensuremath {\diamondsuit }}
\@writefile{thm}{\contentsline {felad}{{Exercise.}{1.8.0.22}{}}{134}}
\newlabel{ell:felcondvem}{{1.8.0.22}{134}}
\@writefile{thm}{\contentsline {felad}{{Exercise.}{1.8.0.23}{}}{134}}
\newlabel{ell:mg1}{{1.8.0.23}{134}}
\@writefile{thm}{\contentsline {felad}{{Exercise.}{1.8.0.24}{}}{134}}
\newlabel{ell:mg2}{{1.8.0.24}{134}}
\@writefile{thm}{\contentsline {felad}{{Exercise.}{1.8.0.25}{}}{134}}
\newlabel{ell:mg3}{{1.8.0.25}{134}}
\@writefile{thm}{\contentsline {felad}{{Exercise.}{1.8.0.26}{}}{134}}
\newlabel{ell:mg4}{{1.8.0.26}{134}}
\@writefile{thm}{\contentsline {felad}{{Exercise.}{1.8.0.27}{}}{135}}
\newlabel{ell:mg5}{{1.8.0.27}{135}}
\@writefile{thm}{\contentsline {felad}{{Exercise.}{1.8.0.28}{}}{135}}
\newlabel{ell:mg6}{{1.8.0.28}{135}}
\@writefile{thm}{\contentsline {felad}{{Exercise.}{1.8.0.29}{}}{135}}
\newlabel{ell:mg7}{{1.8.0.29}{135}}
\@writefile{thm}{\contentsline {felad}{{Exercise.}{1.8.0.30}{}}{135}}
\newlabel{ell:mg8}{{1.8.0.30}{135}}
\@writefile{thm}{\contentsline {felad}{{Exercise.}{1.8.0.31}{}}{135}}
\newlabel{ell:mg9}{{1.8.0.31}{135}}
\@writefile{thm}{\contentsline {felad}{{Exercise.}{1.8.0.32}{}}{135}}
\newlabel{ell:mg10}{{1.8.0.32}{135}}
\@writefile{thm}{\contentsline {felad}{{Exercise.}{1.8.0.33}{}}{135}}
\newlabel{ell:felnbdivadj}{{1.8.0.33}{135}}
\@writefile{thm}{\contentsline {felad}{{Exercise.}{1.8.0.34}{}}{135}}
\newlabel{ell:felinfsupekv}{{1.8.0.34}{135}}
\@writefile{thm}{\contentsline {felad}{{Exercise.}{1.8.0.35}{}}{135}}
\newlabel{ell:felstokesdiv}{{1.8.0.35}{135}}
\@writefile{thm}{\contentsline {felad}{{Exercise.}{1.8.0.36}{}}{135}}
\newlabel{ell:nemlin1}{{1.8.0.36}{135}}
\@writefile{thm}{\contentsline {felad}{{Exercise.}{1.8.0.37}{}}{135}}
\newlabel{ell:nemlinnewsl}{{1.8.0.37}{135}}
\bibcite{Ax}{1}
\bibcite{Arnold_PDE}{2}
\bibcite{DG}{3}
\bibcite{BGN}{4}
\bibcite{Braess}{5}
\bibcite{Ci}{6}
\bibcite{CS}{7}
\bibcite{ESW}{8}
\bibcite{book}{9}
\bibcite{Ha2}{10}
\bibcite{Ha}{11}
\bibcite{Kad2}{12}
\bibcite{nfa}{13}
\bibcite{KKK}{14}
\bibcite{KN}{15}
\bibcite{numint}{16}
\bibcite{infsupexpl}{17}
\bibcite{Necas}{18}
\bibcite{9pt}{19}
\bibcite{RSS}{20}
\bibcite{SB}{21}
\bibcite{inf-Stoyan}{22}
\bibcite{Stoyan}{23}
\bibcite{Strikwerda}{24}
\bibcite{Vl}{25}
